EESchema Schematic File Version 4
LIBS:beobridge-cache
EELAYER 29 0
EELAYER END
$Descr A4 11693 8268
encoding utf-8
Sheet 1 1
Title ""
Date ""
Rev ""
Comp ""
Comment1 ""
Comment2 ""
Comment3 ""
Comment4 ""
$EndDescr
$Comp
L RF_Module:ESP32-WROOM-32 U1
U 1 1 5D10CEC7
P 1550 5450
F 0 "U1" H 1250 6000 50  0000 C CNN
F 1 "ESP32-WROOM-32" H 1450 6100 50  0000 C CNN
F 2 "Project:ESP32-WROOM-32" H 1550 3950 50  0001 C CNN
F 3 "https://www.espressif.com/sites/default/files/documentation/esp32-wroom-32_datasheet_en.pdf" H 1250 5500 50  0001 C CNN
	1    1550 5450
	1    0    0    -1  
$EndComp
$Comp
L Device:R R1
U 1 1 5D10DFBA
P 800 2850
F 0 "R1" H 870 2896 50  0000 L CNN
F 1 "10k" H 870 2805 50  0000 L CNN
F 2 "Resistor_SMD:R_0805_2012Metric_Pad1.15x1.40mm_HandSolder" V 730 2850 50  0001 C CNN
F 3 "~" H 800 2850 50  0001 C CNN
	1    800  2850
	1    0    0    -1  
$EndComp
$Comp
L Device:C C1
U 1 1 5D10E832
P 800 3300
F 0 "C1" H 915 3346 50  0000 L CNN
F 1 "0.1uF 50V" H 915 3255 50  0000 L CNN
F 2 "Capacitor_SMD:C_0805_2012Metric_Pad1.15x1.40mm_HandSolder" H 838 3150 50  0001 C CNN
F 3 "~" H 800 3300 50  0001 C CNN
	1    800  3300
	1    0    0    -1  
$EndComp
$Comp
L power:GND #PWR02
U 1 1 5D113CB3
P 800 3600
F 0 "#PWR02" H 800 3350 50  0001 C CNN
F 1 "GND" H 805 3427 50  0000 C CNN
F 2 "" H 800 3600 50  0001 C CNN
F 3 "" H 800 3600 50  0001 C CNN
	1    800  3600
	1    0    0    -1  
$EndComp
$Comp
L power:+3.3V #PWR01
U 1 1 5D114956
P 800 2550
F 0 "#PWR01" H 800 2400 50  0001 C CNN
F 1 "+3.3V" H 815 2723 50  0000 C CNN
F 2 "" H 800 2550 50  0001 C CNN
F 3 "" H 800 2550 50  0001 C CNN
	1    800  2550
	1    0    0    -1  
$EndComp
Wire Wire Line
	800  2550 800  2700
Wire Wire Line
	800  3000 800  3100
Wire Wire Line
	800  3450 800  3600
Wire Wire Line
	950  4250 700  4250
Wire Wire Line
	800  3100 1100 3100
Connection ~ 800  3100
Wire Wire Line
	800  3100 800  3150
Text Label 700  4250 0    50   ~ 0
EN
Text Label 1100 3100 0    50   ~ 0
EN
NoConn ~ 950  5450
NoConn ~ 950  5550
NoConn ~ 950  5650
NoConn ~ 950  5750
NoConn ~ 950  5850
NoConn ~ 950  5950
$Comp
L power:GND #PWR04
U 1 1 5D12518B
P 1550 7050
F 0 "#PWR04" H 1550 6800 50  0001 C CNN
F 1 "GND" H 1555 6877 50  0000 C CNN
F 2 "" H 1550 7050 50  0001 C CNN
F 3 "" H 1550 7050 50  0001 C CNN
	1    1550 7050
	1    0    0    -1  
$EndComp
Wire Wire Line
	1550 7050 1550 6850
$Comp
L Switch:SW_Push SW1
U 1 1 5D12BC39
P 2550 2200
F 0 "SW1" H 2550 2485 50  0000 C CNN
F 1 "SW_Push" H 2550 2394 50  0000 C CNN
F 2 "Button_Switch_THT:SW_PUSH_6mm_H5mm" H 2550 2400 50  0001 C CNN
F 3 "~" H 2550 2400 50  0001 C CNN
	1    2550 2200
	1    0    0    -1  
$EndComp
Wire Wire Line
	1800 2200 2350 2200
$Comp
L power:GND #PWR010
U 1 1 5D12C8C8
P 2950 2200
F 0 "#PWR010" H 2950 1950 50  0001 C CNN
F 1 "GND" V 2955 2072 50  0000 R CNN
F 2 "" H 2950 2200 50  0001 C CNN
F 3 "" H 2950 2200 50  0001 C CNN
	1    2950 2200
	0    -1   -1   0   
$EndComp
Wire Wire Line
	2950 2200 2750 2200
Wire Wire Line
	2500 3450 2500 3500
Connection ~ 2500 3450
Wire Wire Line
	2500 3250 2500 3450
$Comp
L power:+3.3V #PWR06
U 1 1 5D1192F7
P 2500 3250
F 0 "#PWR06" H 2500 3100 50  0001 C CNN
F 1 "+3.3V" H 2515 3423 50  0000 C CNN
F 2 "" H 2500 3250 50  0001 C CNN
F 3 "" H 2500 3250 50  0001 C CNN
	1    2500 3250
	1    0    0    -1  
$EndComp
$Comp
L power:GND #PWR07
U 1 1 5D1192ED
P 2500 3950
F 0 "#PWR07" H 2500 3700 50  0001 C CNN
F 1 "GND" H 2505 3777 50  0000 C CNN
F 2 "" H 2500 3950 50  0001 C CNN
F 3 "" H 2500 3950 50  0001 C CNN
	1    2500 3950
	1    0    0    -1  
$EndComp
Wire Wire Line
	1550 3450 1550 4050
$Comp
L Connector:USB_B_Micro J1
U 1 1 5D15113E
P 950 1150
F 0 "J1" H 1007 1617 50  0000 C CNN
F 1 "USB_B_Micro" H 1007 1526 50  0000 C CNN
F 2 "Connector_USB:USB_Micro-B_Molex-105017-0001" H 1100 1100 50  0001 C CNN
F 3 "~" H 1100 1100 50  0001 C CNN
	1    950  1150
	1    0    0    -1  
$EndComp
$Comp
L power:GND #PWR03
U 1 1 5D15C2C9
P 950 1750
F 0 "#PWR03" H 950 1500 50  0001 C CNN
F 1 "GND" H 955 1577 50  0000 C CNN
F 2 "" H 950 1750 50  0001 C CNN
F 3 "" H 950 1750 50  0001 C CNN
	1    950  1750
	1    0    0    -1  
$EndComp
Wire Wire Line
	950  1750 950  1650
Wire Wire Line
	850  1550 850  1650
Wire Wire Line
	850  1650 950  1650
Connection ~ 950  1650
Wire Wire Line
	950  1650 950  1550
$Comp
L Diode:PMEG6010CEH D1
U 1 1 5D15D5B2
P 1550 950
F 0 "D1" H 1550 734 50  0000 C CNN
F 1 "PMEG6010CEH" H 1550 825 50  0000 C CNN
F 2 "Diode_SMD:D_SOD-123" H 1550 775 50  0001 C CNN
F 3 "https://assets.nexperia.com/documents/data-sheet/PMEG6010CEH_PMEG6010CEJ.pdf" H 1550 950 50  0001 C CNN
	1    1550 950 
	-1   0    0    1   
$EndComp
Wire Wire Line
	1250 950  1400 950 
Wire Wire Line
	1850 950  1700 950 
$Comp
L Device:CP C5
U 1 1 5D177514
P 4950 1150
F 0 "C5" H 5068 1196 50  0000 L CNN
F 1 "22uF 10V" H 5068 1105 50  0000 L CNN
F 2 "Capacitor_SMD:C_1206_3216Metric_Pad1.42x1.75mm_HandSolder" H 4988 1000 50  0001 C CNN
F 3 "~" H 4950 1150 50  0001 C CNN
	1    4950 1150
	1    0    0    -1  
$EndComp
$Comp
L power:GND #PWR015
U 1 1 5D17B6AD
P 4350 1300
F 0 "#PWR015" H 4350 1050 50  0001 C CNN
F 1 "GND" H 4355 1127 50  0000 C CNN
F 2 "" H 4350 1300 50  0001 C CNN
F 3 "" H 4350 1300 50  0001 C CNN
	1    4350 1300
	1    0    0    -1  
$EndComp
$Comp
L power:GND #PWR017
U 1 1 5D17B8F4
P 4950 1400
F 0 "#PWR017" H 4950 1150 50  0001 C CNN
F 1 "GND" H 4955 1227 50  0000 C CNN
F 2 "" H 4950 1400 50  0001 C CNN
F 3 "" H 4950 1400 50  0001 C CNN
	1    4950 1400
	1    0    0    -1  
$EndComp
Wire Wire Line
	4950 1400 4950 1300
Wire Wire Line
	4350 1200 4350 1300
Wire Wire Line
	3800 900  4050 900 
Wire Wire Line
	4650 900  4950 900 
Wire Wire Line
	4950 900  4950 1000
$Comp
L power:+5V #PWR013
U 1 1 5D17DCDB
P 3650 900
F 0 "#PWR013" H 3650 750 50  0001 C CNN
F 1 "+5V" V 3665 1028 50  0000 L CNN
F 2 "" H 3650 900 50  0001 C CNN
F 3 "" H 3650 900 50  0001 C CNN
	1    3650 900 
	0    -1   -1   0   
$EndComp
Wire Wire Line
	3650 900  3800 900 
Connection ~ 3800 900 
$Comp
L power:+3.3V #PWR019
U 1 1 5D17F456
P 5050 900
F 0 "#PWR019" H 5050 750 50  0001 C CNN
F 1 "+3.3V" V 5065 1028 50  0000 L CNN
F 2 "" H 5050 900 50  0001 C CNN
F 3 "" H 5050 900 50  0001 C CNN
	1    5050 900 
	0    1    1    0   
$EndComp
Wire Wire Line
	5050 900  4950 900 
Connection ~ 4950 900 
$Comp
L Transistor_BJT:BC848 Q1
U 1 1 5D180FDE
P 5400 6750
F 0 "Q1" V 5635 6750 50  0000 C CNN
F 1 "BC848" V 5726 6750 50  0000 C CNN
F 2 "Package_TO_SOT_SMD:SOT-23" H 5600 6675 50  0001 L CIN
F 3 "http://www.infineon.com/dgdl/Infineon-BC847SERIES_BC848SERIES_BC849SERIES_BC850SERIES-DS-v01_01-en.pdf?fileId=db3a304314dca389011541d4630a1657" H 5400 6750 50  0001 L CNN
	1    5400 6750
	0    1    1    0   
$EndComp
$Comp
L Device:R R8
U 1 1 5D1858CE
P 5400 6300
F 0 "R8" H 5470 6346 50  0000 L CNN
F 1 "10k" H 5470 6255 50  0000 L CNN
F 2 "Resistor_SMD:R_0805_2012Metric_Pad1.15x1.40mm_HandSolder" V 5330 6300 50  0001 C CNN
F 3 "~" H 5400 6300 50  0001 C CNN
	1    5400 6300
	1    0    0    -1  
$EndComp
Wire Wire Line
	5400 6450 5400 6550
Wire Wire Line
	5400 6050 5400 6150
Wire Wire Line
	2250 6350 2150 6350
NoConn ~ 2150 6550
NoConn ~ 2150 6450
NoConn ~ 950  4550
NoConn ~ 950  4450
Wire Wire Line
	2950 1400 2750 1400
$Comp
L power:GND #PWR08
U 1 1 5D1901E5
P 2950 1400
F 0 "#PWR08" H 2950 1150 50  0001 C CNN
F 1 "GND" V 2955 1272 50  0000 R CNN
F 2 "" H 2950 1400 50  0001 C CNN
F 3 "" H 2950 1400 50  0001 C CNN
	1    2950 1400
	0    -1   -1   0   
$EndComp
Wire Wire Line
	2350 1400 2450 1400
$Comp
L Device:LED D2
U 1 1 5D18CBE6
P 2600 1400
F 0 "D2" H 2750 1300 50  0000 C CNN
F 1 "LED" H 2600 1300 50  0000 C CNN
F 2 "LED_SMD:LED_0805_2012Metric_Pad1.15x1.40mm_HandSolder" H 2600 1400 50  0001 C CNN
F 3 "~" H 2600 1400 50  0001 C CNN
	1    2600 1400
	-1   0    0    1   
$EndComp
$Comp
L Device:R R2
U 1 1 5D18AC89
P 2200 1400
F 0 "R2" V 1993 1400 50  0000 C CNN
F 1 "1k" V 2084 1400 50  0000 C CNN
F 2 "Resistor_SMD:R_0805_2012Metric_Pad1.15x1.40mm_HandSolder" V 2130 1400 50  0001 C CNN
F 3 "~" H 2200 1400 50  0001 C CNN
	1    2200 1400
	0    1    1    0   
$EndComp
Wire Wire Line
	2050 1400 1800 1400
Text Label 1800 1400 0    50   ~ 0
LED
Text Label 1800 2200 0    50   ~ 0
BOOT
Wire Wire Line
	2150 4250 2250 4250
Text Label 2250 4250 0    50   ~ 0
BOOT
Text Label 2250 6350 0    50   ~ 0
LED
Text Label 4000 6850 0    50   ~ 0
DATALINK
Wire Wire Line
	4750 6850 5200 6850
$Comp
L Diode:BZX84Cxx D4
U 1 1 5D1B2B30
P 5800 7100
F 0 "D4" V 5754 7179 50  0000 L CNN
F 1 "BZX84C12" V 5845 7179 50  0000 L CNN
F 2 "Diode_SMD:D_SOT-23_ANK" H 5800 6925 50  0001 C CNN
F 3 "https://diotec.com/tl_files/diotec/files/pdf/datasheets/bzx84c2v4.pdf" H 5800 7100 50  0001 C CNN
	1    5800 7100
	0    1    1    0   
$EndComp
Wire Wire Line
	5600 6850 5800 6850
Wire Wire Line
	5800 6950 5800 6850
Connection ~ 5800 6850
Wire Wire Line
	5800 6850 6050 6850
$Comp
L power:GND #PWR026
U 1 1 5D1BC730
P 5800 7350
F 0 "#PWR026" H 5800 7100 50  0001 C CNN
F 1 "GND" H 5805 7177 50  0000 C CNN
F 2 "" H 5800 7350 50  0001 C CNN
F 3 "" H 5800 7350 50  0001 C CNN
	1    5800 7350
	1    0    0    -1  
$EndComp
Wire Wire Line
	5800 7350 5800 7250
$Comp
L Device:CP C6
U 1 1 5D1CE7DC
P 4950 2050
F 0 "C6" H 5068 2096 50  0000 L CNN
F 1 "22uF 10V" H 5068 2005 50  0000 L CNN
F 2 "Capacitor_SMD:C_1206_3216Metric_Pad1.42x1.75mm_HandSolder" H 4988 1900 50  0001 C CNN
F 3 "~" H 4950 2050 50  0001 C CNN
	1    4950 2050
	1    0    0    -1  
$EndComp
$Comp
L power:GND #PWR014
U 1 1 5D1CE7F0
P 3800 2350
F 0 "#PWR014" H 3800 2100 50  0001 C CNN
F 1 "GND" H 3805 2177 50  0000 C CNN
F 2 "" H 3800 2350 50  0001 C CNN
F 3 "" H 3800 2350 50  0001 C CNN
	1    3800 2350
	1    0    0    -1  
$EndComp
$Comp
L power:GND #PWR016
U 1 1 5D1CE7FA
P 4350 2200
F 0 "#PWR016" H 4350 1950 50  0001 C CNN
F 1 "GND" H 4355 2027 50  0000 C CNN
F 2 "" H 4350 2200 50  0001 C CNN
F 3 "" H 4350 2200 50  0001 C CNN
	1    4350 2200
	1    0    0    -1  
$EndComp
$Comp
L power:GND #PWR018
U 1 1 5D1CE804
P 4950 2300
F 0 "#PWR018" H 4950 2050 50  0001 C CNN
F 1 "GND" H 4955 2127 50  0000 C CNN
F 2 "" H 4950 2300 50  0001 C CNN
F 3 "" H 4950 2300 50  0001 C CNN
	1    4950 2300
	1    0    0    -1  
$EndComp
Wire Wire Line
	4950 2300 4950 2200
Wire Wire Line
	4350 2100 4350 2200
Wire Wire Line
	3800 2250 3800 2350
Wire Wire Line
	3800 1950 3800 1800
Wire Wire Line
	3800 1800 4050 1800
Wire Wire Line
	4650 1800 4950 1800
Wire Wire Line
	4950 1800 4950 1900
Connection ~ 3800 1800
Wire Wire Line
	5050 1800 4950 1800
Connection ~ 4950 1800
$Comp
L Audio:PCM5100 U4
U 1 1 5D1D7EA7
P 6200 4050
F 0 "U4" H 6200 4100 50  0000 C CNN
F 1 "PCM5102A" H 6200 4000 50  0000 C CNN
F 2 "Package_SO:TSSOP-20_4.4x6.5mm_P0.65mm" H 6150 4800 50  0001 C CNN
F 3 "http://www.ti.com/lit/ds/symlink/pcm5100.pdf" H 6150 4800 50  0001 C CNN
	1    6200 4050
	1    0    0    -1  
$EndComp
$Comp
L Device:R R4
U 1 1 5D114676
P 4600 6850
F 0 "R4" H 4670 6896 50  0000 L CNN
F 1 "220" H 4670 6805 50  0000 L CNN
F 2 "Resistor_SMD:R_0805_2012Metric_Pad1.15x1.40mm_HandSolder" V 4530 6850 50  0001 C CNN
F 3 "~" H 4600 6850 50  0001 C CNN
	1    4600 6850
	0    1    1    0   
$EndComp
Wire Wire Line
	4000 6850 4450 6850
$Comp
L power:+5V #PWR05
U 1 1 5D16055C
P 1800 1750
F 0 "#PWR05" H 1800 1600 50  0001 C CNN
F 1 "+5V" V 1815 1878 50  0000 L CNN
F 2 "" H 1800 1750 50  0001 C CNN
F 3 "" H 1800 1750 50  0001 C CNN
	1    1800 1750
	0    -1   -1   0   
$EndComp
Wire Wire Line
	5700 4350 5350 4350
Text Label 5350 4350 0    50   ~ 0
XSMT
$Comp
L power:+3.3VA #PWR020
U 1 1 5D15E9DB
P 5050 1800
F 0 "#PWR020" H 5050 1650 50  0001 C CNN
F 1 "+3.3VA" V 5065 1928 50  0000 L CNN
F 2 "" H 5050 1800 50  0001 C CNN
F 3 "" H 5050 1800 50  0001 C CNN
	1    5050 1800
	0    1    1    0   
$EndComp
$Comp
L power:GND #PWR029
U 1 1 5D1A5FCA
P 6200 4950
F 0 "#PWR029" H 6200 4700 50  0001 C CNN
F 1 "GND" V 6205 4777 50  0000 C CNN
F 2 "" H 6200 4950 50  0001 C CNN
F 3 "" H 6200 4950 50  0001 C CNN
	1    6200 4950
	1    0    0    -1  
$EndComp
Wire Wire Line
	6200 4950 6200 4850
Wire Wire Line
	6100 4750 6100 4850
Wire Wire Line
	6100 4850 6200 4850
Connection ~ 6200 4850
Wire Wire Line
	6200 4850 6200 4750
Wire Wire Line
	6200 4850 6300 4850
Wire Wire Line
	6300 4850 6300 4750
$Comp
L power:GND #PWR023
U 1 1 5D1BDEC0
P 5600 4600
F 0 "#PWR023" H 5600 4350 50  0001 C CNN
F 1 "GND" V 5605 4427 50  0000 C CNN
F 2 "" H 5600 4600 50  0001 C CNN
F 3 "" H 5600 4600 50  0001 C CNN
	1    5600 4600
	1    0    0    -1  
$EndComp
Wire Wire Line
	5600 4450 5700 4450
Wire Wire Line
	5700 4250 5600 4250
Connection ~ 5600 4250
Wire Wire Line
	5600 4250 5600 4450
Wire Wire Line
	5700 4150 5600 4150
Wire Wire Line
	5600 4150 5600 4250
Wire Wire Line
	5600 4600 5600 4450
Connection ~ 5600 4450
$Comp
L Device:R R12
U 1 1 5D1C8D7A
P 7850 3650
F 0 "R12" V 7750 3700 50  0000 L CNN
F 1 "470" V 7750 3500 50  0000 L CNN
F 2 "Resistor_SMD:R_0805_2012Metric_Pad1.15x1.40mm_HandSolder" V 7780 3650 50  0001 C CNN
F 3 "~" H 7850 3650 50  0001 C CNN
	1    7850 3650
	0    1    1    0   
$EndComp
$Comp
L Device:R R13
U 1 1 5D1D17F4
P 7850 3750
F 0 "R13" V 7950 3800 50  0000 L CNN
F 1 "470" V 7950 3600 50  0000 L CNN
F 2 "Resistor_SMD:R_0805_2012Metric_Pad1.15x1.40mm_HandSolder" V 7780 3750 50  0001 C CNN
F 3 "~" H 7850 3750 50  0001 C CNN
	1    7850 3750
	0    1    1    0   
$EndComp
Wire Wire Line
	6700 3650 7700 3650
$Comp
L Device:C C18
U 1 1 5D1CA9BE
P 9250 4000
F 0 "C18" H 9365 4046 50  0000 L CNN
F 1 "2.2nF" H 9365 3955 50  0000 L CNN
F 2 "Capacitor_SMD:C_0805_2012Metric_Pad1.15x1.40mm_HandSolder" H 9288 3850 50  0001 C CNN
F 3 "~" H 9250 4000 50  0001 C CNN
	1    9250 4000
	1    0    0    -1  
$EndComp
$Comp
L Device:C C17
U 1 1 5D1D48FD
P 8100 4000
F 0 "C17" H 8215 4046 50  0000 L CNN
F 1 "2.2nF" H 8215 3955 50  0000 L CNN
F 2 "Capacitor_SMD:C_0805_2012Metric_Pad1.15x1.40mm_HandSolder" H 8138 3850 50  0001 C CNN
F 3 "~" H 8100 4000 50  0001 C CNN
	1    8100 4000
	1    0    0    -1  
$EndComp
Wire Wire Line
	8000 3750 8100 3750
Wire Wire Line
	8100 3750 8100 3850
$Comp
L power:GND #PWR035
U 1 1 5D1DAD3A
P 8100 4300
F 0 "#PWR035" H 8100 4050 50  0001 C CNN
F 1 "GND" V 8105 4127 50  0000 C CNN
F 2 "" H 8100 4300 50  0001 C CNN
F 3 "" H 8100 4300 50  0001 C CNN
	1    8100 4300
	1    0    0    -1  
$EndComp
Wire Wire Line
	9250 4250 9250 4150
$Comp
L Device:C C14
U 1 1 5D1DF74A
P 6900 4100
F 0 "C14" H 7015 4146 50  0000 L CNN
F 1 "2.2uF" H 7015 4055 50  0000 L CNN
F 2 "Capacitor_SMD:C_0805_2012Metric_Pad1.15x1.40mm_HandSolder" H 6938 3950 50  0001 C CNN
F 3 "~" H 6900 4100 50  0001 C CNN
	1    6900 4100
	1    0    0    -1  
$EndComp
Wire Wire Line
	6700 3750 7700 3750
Wire Wire Line
	6700 3950 6900 3950
Wire Wire Line
	6900 4250 6700 4250
$Comp
L power:GND #PWR032
U 1 1 5D1E9F4B
P 6850 5000
F 0 "#PWR032" H 6850 4750 50  0001 C CNN
F 1 "GND" V 6855 4827 50  0000 C CNN
F 2 "" H 6850 5000 50  0001 C CNN
F 3 "" H 6850 5000 50  0001 C CNN
	1    6850 5000
	1    0    0    -1  
$EndComp
$Comp
L Device:C C13
U 1 1 5D1EA271
P 6850 4750
F 0 "C13" H 6965 4796 50  0000 L CNN
F 1 "2.2uF" H 6965 4705 50  0000 L CNN
F 2 "Capacitor_SMD:C_0805_2012Metric_Pad1.15x1.40mm_HandSolder" H 6888 4600 50  0001 C CNN
F 3 "~" H 6850 4750 50  0001 C CNN
	1    6850 4750
	1    0    0    -1  
$EndComp
Wire Wire Line
	6700 4550 6850 4550
Wire Wire Line
	6850 4550 6850 4600
Wire Wire Line
	6850 5000 6850 4950
$Comp
L Device:C C15
U 1 1 5D1EE0CD
P 7350 4750
F 0 "C15" H 7465 4796 50  0000 L CNN
F 1 "100nF" H 7465 4705 50  0000 L CNN
F 2 "Capacitor_SMD:C_0805_2012Metric_Pad1.15x1.40mm_HandSolder" H 7388 4600 50  0001 C CNN
F 3 "~" H 7350 4750 50  0001 C CNN
	1    7350 4750
	1    0    0    -1  
$EndComp
$Comp
L Device:C C16
U 1 1 5D1EE76C
P 7850 4750
F 0 "C16" H 7968 4796 50  0000 L CNN
F 1 "10uF" H 7968 4705 50  0000 L CNN
F 2 "Capacitor_SMD:C_0805_2012Metric_Pad1.15x1.40mm_HandSolder" H 7888 4600 50  0001 C CNN
F 3 "~" H 7850 4750 50  0001 C CNN
	1    7850 4750
	1    0    0    -1  
$EndComp
Wire Wire Line
	6700 4450 7350 4450
Wire Wire Line
	7850 4450 7850 4600
Wire Wire Line
	7350 4600 7350 4450
Connection ~ 7350 4450
Wire Wire Line
	7350 4450 7850 4450
Wire Wire Line
	6850 4950 7350 4950
Wire Wire Line
	7850 4950 7850 4900
Connection ~ 6850 4950
Wire Wire Line
	6850 4950 6850 4900
Wire Wire Line
	7350 4900 7350 4950
Connection ~ 7350 4950
Wire Wire Line
	7350 4950 7850 4950
Text Label 8100 3650 0    50   ~ 0
CONN_L
Text Label 8100 3750 0    50   ~ 0
CONN_R
Text Label 6050 6850 0    50   ~ 0
CONN_DATA
$Comp
L Device:R R10
U 1 1 5D1374D0
P 7600 1500
F 0 "R10" H 7670 1546 50  0000 L CNN
F 1 "2.2k" H 7670 1455 50  0000 L CNN
F 2 "Resistor_SMD:R_0805_2012Metric_Pad1.15x1.40mm_HandSolder" V 7530 1500 50  0001 C CNN
F 3 "~" H 7600 1500 50  0001 C CNN
	1    7600 1500
	1    0    0    -1  
$EndComp
$Comp
L Device:R R11
U 1 1 5D139B4D
P 7600 1900
F 0 "R11" H 7670 1946 50  0000 L CNN
F 1 "2k" H 7670 1855 50  0000 L CNN
F 2 "Resistor_SMD:R_0805_2012Metric_Pad1.15x1.40mm_HandSolder" V 7530 1900 50  0001 C CNN
F 3 "~" H 7600 1900 50  0001 C CNN
	1    7600 1900
	1    0    0    -1  
$EndComp
Wire Wire Line
	7600 1750 7600 1700
Wire Wire Line
	7600 1350 7600 1250
Wire Wire Line
	7600 2050 7600 2100
$Comp
L power:GND #PWR034
U 1 1 5D1407CD
P 7600 2150
F 0 "#PWR034" H 7600 1900 50  0001 C CNN
F 1 "GND" H 7605 1977 50  0000 C CNN
F 2 "" H 7600 2150 50  0001 C CNN
F 3 "" H 7600 2150 50  0001 C CNN
	1    7600 2150
	1    0    0    -1  
$EndComp
$Comp
L power:+5V #PWR033
U 1 1 5D140D19
P 7600 1250
F 0 "#PWR033" H 7600 1100 50  0001 C CNN
F 1 "+5V" V 7615 1378 50  0000 L CNN
F 2 "" H 7600 1250 50  0001 C CNN
F 3 "" H 7600 1250 50  0001 C CNN
	1    7600 1250
	1    0    0    -1  
$EndComp
Connection ~ 7600 1700
Wire Wire Line
	7600 1700 7600 1650
Text Label 8500 1700 0    50   ~ 0
XSMT
$Comp
L power:+3.3V #PWR021
U 1 1 5D14B2C1
P 5400 6050
F 0 "#PWR021" H 5400 5900 50  0001 C CNN
F 1 "+3.3V" H 5415 6223 50  0000 C CNN
F 2 "" H 5400 6050 50  0001 C CNN
F 3 "" H 5400 6050 50  0001 C CNN
	1    5400 6050
	1    0    0    -1  
$EndComp
$Comp
L Device:R R5
U 1 1 5D1569DF
P 5350 3650
F 0 "R5" V 5300 3750 50  0000 L CNN
F 1 "100" V 5300 3400 50  0000 L CNN
F 2 "Resistor_SMD:R_0805_2012Metric_Pad1.15x1.40mm_HandSolder" V 5280 3650 50  0001 C CNN
F 3 "~" H 5350 3650 50  0001 C CNN
	1    5350 3650
	0    1    1    0   
$EndComp
$Comp
L Device:R R6
U 1 1 5D158812
P 5350 3750
F 0 "R6" V 5300 3850 50  0000 L CNN
F 1 "100" V 5300 3500 50  0000 L CNN
F 2 "Resistor_SMD:R_0805_2012Metric_Pad1.15x1.40mm_HandSolder" V 5280 3750 50  0001 C CNN
F 3 "~" H 5350 3750 50  0001 C CNN
	1    5350 3750
	0    1    1    0   
$EndComp
$Comp
L Device:R R7
U 1 1 5D158993
P 5350 3850
F 0 "R7" V 5300 3950 50  0000 L CNN
F 1 "100" V 5300 3600 50  0000 L CNN
F 2 "Resistor_SMD:R_0805_2012Metric_Pad1.15x1.40mm_HandSolder" V 5280 3850 50  0001 C CNN
F 3 "~" H 5350 3850 50  0001 C CNN
	1    5350 3850
	0    1    1    0   
$EndComp
Wire Wire Line
	5700 3850 5500 3850
Wire Wire Line
	5500 3750 5700 3750
Wire Wire Line
	5700 3650 5500 3650
$Comp
L Device:C C8
U 1 1 5D169596
P 5800 3300
F 0 "C8" V 5700 3400 50  0000 L CNN
F 1 "100nF" V 5700 3000 50  0000 L CNN
F 2 "Capacitor_SMD:C_0805_2012Metric_Pad1.15x1.40mm_HandSolder" H 5838 3150 50  0001 C CNN
F 3 "~" H 5800 3300 50  0001 C CNN
	1    5800 3300
	0    1    1    0   
$EndComp
$Comp
L Device:C C12
U 1 1 5D16C2B2
P 6600 3300
F 0 "C12" V 6500 3400 50  0000 L CNN
F 1 "100nF" V 6500 3000 50  0000 L CNN
F 2 "Capacitor_SMD:C_0805_2012Metric_Pad1.15x1.40mm_HandSolder" H 6638 3150 50  0001 C CNN
F 3 "~" H 6600 3300 50  0001 C CNN
	1    6600 3300
	0    -1   1    0   
$EndComp
Wire Wire Line
	6450 3300 6300 3300
Wire Wire Line
	6300 3300 6300 3450
Wire Wire Line
	6100 3450 6100 3300
Wire Wire Line
	6100 3300 5950 3300
$Comp
L power:GND #PWR022
U 1 1 5D179C3E
P 5600 3350
F 0 "#PWR022" H 5600 3100 50  0001 C CNN
F 1 "GND" H 5605 3177 50  0000 C CNN
F 2 "" H 5600 3350 50  0001 C CNN
F 3 "" H 5600 3350 50  0001 C CNN
	1    5600 3350
	1    0    0    -1  
$EndComp
Wire Wire Line
	5600 3350 5600 3300
Wire Wire Line
	5600 3300 5650 3300
$Comp
L power:GND #PWR031
U 1 1 5D17DB61
P 6850 3400
F 0 "#PWR031" H 6850 3150 50  0001 C CNN
F 1 "GND" H 6855 3227 50  0000 C CNN
F 2 "" H 6850 3400 50  0001 C CNN
F 3 "" H 6850 3400 50  0001 C CNN
	1    6850 3400
	1    0    0    -1  
$EndComp
Wire Wire Line
	6850 3400 6850 3300
Wire Wire Line
	6850 3300 6750 3300
$Comp
L power:+3.3VA #PWR027
U 1 1 5D184F3D
P 5400 2800
F 0 "#PWR027" H 5400 2650 50  0001 C CNN
F 1 "+3.3VA" V 5415 2928 50  0000 L CNN
F 2 "" H 5400 2800 50  0001 C CNN
F 3 "" H 5400 2800 50  0001 C CNN
	1    5400 2800
	0    -1   -1   0   
$EndComp
$Comp
L power:+3.3VA #PWR030
U 1 1 5D185E04
P 6900 2800
F 0 "#PWR030" H 6900 2650 50  0001 C CNN
F 1 "+3.3VA" V 6915 2928 50  0000 L CNN
F 2 "" H 6900 2800 50  0001 C CNN
F 3 "" H 6900 2800 50  0001 C CNN
	1    6900 2800
	0    1    1    0   
$EndComp
Wire Wire Line
	6100 2800 5950 2800
Connection ~ 6100 3300
$Comp
L Device:C C11
U 1 1 5D1B76A1
P 6600 3050
F 0 "C11" V 6500 3200 50  0000 L CNN
F 1 "10uF" V 6500 2750 50  0000 L CNN
F 2 "Capacitor_SMD:C_0805_2012Metric_Pad1.15x1.40mm_HandSolder" H 6638 2900 50  0001 C CNN
F 3 "~" H 6600 3050 50  0001 C CNN
	1    6600 3050
	0    -1   1    0   
$EndComp
Wire Wire Line
	6300 3300 6300 3050
Wire Wire Line
	6300 2800 6400 2800
Connection ~ 6300 3300
Wire Wire Line
	6450 3050 6300 3050
Connection ~ 6300 3050
Wire Wire Line
	6300 3050 6300 2800
Wire Wire Line
	6750 3050 6850 3050
Wire Wire Line
	6850 3050 6850 3300
Connection ~ 6850 3300
$Comp
L Device:C C10
U 1 1 5D129E8A
P 5900 2450
F 0 "C10" V 5800 2550 50  0000 L CNN
F 1 "100nF" V 5800 2150 50  0000 L CNN
F 2 "Capacitor_SMD:C_0805_2012Metric_Pad1.15x1.40mm_HandSolder" H 5938 2300 50  0001 C CNN
F 3 "~" H 5900 2450 50  0001 C CNN
	1    5900 2450
	0    1    1    0   
$EndComp
Wire Wire Line
	6200 2450 6050 2450
$Comp
L power:GND #PWR024
U 1 1 5D129E95
P 5700 2500
F 0 "#PWR024" H 5700 2250 50  0001 C CNN
F 1 "GND" H 5705 2327 50  0000 C CNN
F 2 "" H 5700 2500 50  0001 C CNN
F 3 "" H 5700 2500 50  0001 C CNN
	1    5700 2500
	1    0    0    -1  
$EndComp
Wire Wire Line
	5700 2500 5700 2450
Wire Wire Line
	5700 2450 5750 2450
$Comp
L Device:C C9
U 1 1 5D129EAB
P 5900 2200
F 0 "C9" V 5800 2350 50  0000 L CNN
F 1 "10uF" V 5800 1900 50  0000 L CNN
F 2 "Capacitor_SMD:C_0805_2012Metric_Pad1.15x1.40mm_HandSolder" H 5938 2050 50  0001 C CNN
F 3 "~" H 5900 2200 50  0001 C CNN
	1    5900 2200
	0    1    1    0   
$EndComp
Wire Wire Line
	6200 2200 6050 2200
Wire Wire Line
	5700 2450 5700 2200
Wire Wire Line
	5700 2200 5750 2200
Connection ~ 5700 2450
Wire Wire Line
	6200 1950 6200 2200
Connection ~ 6200 2200
Wire Wire Line
	6200 2200 6200 2450
Connection ~ 6200 2450
Wire Wire Line
	6200 2450 6200 3450
NoConn ~ 2150 5050
NoConn ~ 2150 5150
NoConn ~ 2150 4850
Wire Wire Line
	5200 3650 4750 3650
Wire Wire Line
	4750 3750 5200 3750
Wire Wire Line
	5200 3850 4750 3850
Text Label 4750 3650 0    50   ~ 0
LRCLK
Text Label 4750 3750 0    50   ~ 0
DIN
Text Label 4750 3850 0    50   ~ 0
BCK
Wire Wire Line
	5600 4150 5600 3950
Wire Wire Line
	5600 3950 5700 3950
Connection ~ 5600 4150
Text Label 2250 6150 0    50   ~ 0
LRCLK
Text Label 2250 6050 0    50   ~ 0
DIN
Text Label 2250 4950 0    50   ~ 0
BCK
Wire Wire Line
	2150 6050 2250 6050
Wire Wire Line
	2250 4950 2150 4950
Wire Wire Line
	2150 6150 2250 6150
Wire Wire Line
	3600 5100 3400 5100
Wire Wire Line
	3600 5400 3400 5400
Wire Wire Line
	3600 5500 3400 5500
Wire Wire Line
	3600 5300 3400 5300
Wire Wire Line
	3600 5000 3400 5000
$Comp
L power:GND #PWR012
U 1 1 5D1F6F3E
P 3400 5300
F 0 "#PWR012" H 3400 5050 50  0001 C CNN
F 1 "GND" V 3405 5127 50  0000 C CNN
F 2 "" H 3400 5300 50  0001 C CNN
F 3 "" H 3400 5300 50  0001 C CNN
	1    3400 5300
	0    1    1    0   
$EndComp
Wire Wire Line
	2150 4350 2250 4350
Wire Wire Line
	2150 4550 2250 4550
Text Label 2250 4350 0    50   ~ 0
TX
Text Label 2250 4550 0    50   ~ 0
RX
Text Label 3400 5400 0    50   ~ 0
RX
Text Label 3400 5500 0    50   ~ 0
TX
Text Label 3400 5100 0    50   ~ 0
BOOT
Text Label 3400 5700 0    50   ~ 0
EN
$Comp
L Connector_Generic:Conn_01x08 J2
U 1 1 5D20BC64
P 3800 5300
F 0 "J2" H 3880 5342 50  0000 L CNN
F 1 "Conn_01x08" H 3880 5251 50  0000 L CNN
F 2 "Project:SOIC_clipProgSmall" H 3800 5300 50  0001 C CNN
F 3 "~" H 3800 5300 50  0001 C CNN
	1    3800 5300
	1    0    0    -1  
$EndComp
Wire Wire Line
	2950 1750 2750 1750
$Comp
L power:GND #PWR09
U 1 1 5D217043
P 2950 1750
F 0 "#PWR09" H 2950 1500 50  0001 C CNN
F 1 "GND" V 2955 1622 50  0000 R CNN
F 2 "" H 2950 1750 50  0001 C CNN
F 3 "" H 2950 1750 50  0001 C CNN
	1    2950 1750
	0    -1   -1   0   
$EndComp
Wire Wire Line
	2350 1750 2450 1750
$Comp
L Device:LED D3
U 1 1 5D21704E
P 2600 1750
F 0 "D3" H 2750 1650 50  0000 C CNN
F 1 "LED" H 2600 1650 50  0000 C CNN
F 2 "LED_SMD:LED_0805_2012Metric_Pad1.15x1.40mm_HandSolder" H 2600 1750 50  0001 C CNN
F 3 "~" H 2600 1750 50  0001 C CNN
	1    2600 1750
	-1   0    0    1   
$EndComp
$Comp
L Device:R R3
U 1 1 5D217058
P 2200 1750
F 0 "R3" V 1993 1750 50  0000 C CNN
F 1 "2.2k" V 2084 1750 50  0000 C CNN
F 2 "Resistor_SMD:R_0805_2012Metric_Pad1.15x1.40mm_HandSolder" V 2130 1750 50  0001 C CNN
F 3 "~" H 2200 1750 50  0001 C CNN
	1    2200 1750
	0    1    1    0   
$EndComp
Wire Wire Line
	2050 1750 1800 1750
Wire Wire Line
	3800 900  3800 1800
Wire Wire Line
	1900 3850 1900 3800
Wire Wire Line
	1550 3450 1900 3450
Wire Wire Line
	1900 3450 2500 3450
Connection ~ 1900 3450
Wire Wire Line
	1900 3450 1900 3500
Wire Wire Line
	2500 3800 2500 3850
Wire Wire Line
	2500 3850 2500 3950
Connection ~ 2500 3850
Wire Wire Line
	1900 3850 2500 3850
$Comp
L Device:C C2
U 1 1 5D11EE7C
P 1900 3650
F 0 "C2" H 2018 3696 50  0000 L CNN
F 1 "10uF 10V" H 2018 3605 50  0000 L CNN
F 2 "Capacitor_SMD:C_0805_2012Metric_Pad1.15x1.40mm_HandSolder" H 1938 3500 50  0001 C CNN
F 3 "~" H 1900 3650 50  0001 C CNN
	1    1900 3650
	1    0    0    -1  
$EndComp
$Comp
L Device:C C3
U 1 1 5D1192E3
P 2500 3650
F 0 "C3" H 2615 3696 50  0000 L CNN
F 1 "0.1uF 50V" H 2615 3605 50  0000 L CNN
F 2 "Capacitor_SMD:C_0805_2012Metric_Pad1.15x1.40mm_HandSolder" H 2538 3500 50  0001 C CNN
F 3 "~" H 2500 3650 50  0001 C CNN
	1    2500 3650
	1    0    0    -1  
$EndComp
$Comp
L Device:R R9
U 1 1 5D13A4D6
P 5800 6300
F 0 "R9" H 5870 6346 50  0000 L CNN
F 1 "NC" H 5870 6255 50  0000 L CNN
F 2 "Resistor_SMD:R_0805_2012Metric_Pad1.15x1.40mm_HandSolder" V 5730 6300 50  0001 C CNN
F 3 "~" H 5800 6300 50  0001 C CNN
	1    5800 6300
	1    0    0    -1  
$EndComp
Wire Wire Line
	5800 6450 5800 6850
$Comp
L power:+5V #PWR025
U 1 1 5D142327
P 5800 6050
F 0 "#PWR025" H 5800 5900 50  0001 C CNN
F 1 "+5V" H 5815 6178 50  0000 L CNN
F 2 "" H 5800 6050 50  0001 C CNN
F 3 "" H 5800 6050 50  0001 C CNN
	1    5800 6050
	1    0    0    -1  
$EndComp
Wire Wire Line
	5800 6050 5800 6150
$Comp
L Switch:SW_Push SW2
U 1 1 5D18CAD3
P 2550 2650
F 0 "SW2" H 2550 2935 50  0000 C CNN
F 1 "SW_Push" H 2550 2844 50  0000 C CNN
F 2 "Button_Switch_THT:SW_PUSH_6mm_H5mm" H 2550 2850 50  0001 C CNN
F 3 "~" H 2550 2850 50  0001 C CNN
	1    2550 2650
	1    0    0    -1  
$EndComp
Wire Wire Line
	1800 2650 2350 2650
$Comp
L power:GND #PWR011
U 1 1 5D18CADE
P 2950 2650
F 0 "#PWR011" H 2950 2400 50  0001 C CNN
F 1 "GND" V 2955 2522 50  0000 R CNN
F 2 "" H 2950 2650 50  0001 C CNN
F 3 "" H 2950 2650 50  0001 C CNN
	1    2950 2650
	0    -1   -1   0   
$EndComp
Wire Wire Line
	2950 2650 2750 2650
Text Label 1800 2650 0    50   ~ 0
EN
$Comp
L power:+5V #PWR0101
U 1 1 5D169183
P 1850 950
F 0 "#PWR0101" H 1850 800 50  0001 C CNN
F 1 "+5V" V 1865 1078 50  0000 L CNN
F 2 "" H 1850 950 50  0001 C CNN
F 3 "" H 1850 950 50  0001 C CNN
	1    1850 950 
	0    1    1    0   
$EndComp
Wire Wire Line
	3400 5700 3600 5700
Connection ~ 5600 3300
Wire Wire Line
	5600 3300 5600 3050
Wire Wire Line
	5600 3050 5650 3050
Wire Wire Line
	6100 3050 6100 2800
Wire Wire Line
	6100 3300 6100 3050
Connection ~ 6100 3050
Wire Wire Line
	6100 3050 5950 3050
$Comp
L Device:C C7
U 1 1 5D19ECA1
P 5800 3050
F 0 "C7" V 5700 3200 50  0000 L CNN
F 1 "10uF" V 5700 2750 50  0000 L CNN
F 2 "Capacitor_SMD:C_0805_2012Metric_Pad1.15x1.40mm_HandSolder" H 5838 2900 50  0001 C CNN
F 3 "~" H 5800 3050 50  0001 C CNN
	1    5800 3050
	0    1    1    0   
$EndComp
$Comp
L Device:Ferrite_Bead FB1
U 1 1 5D1976D5
P 5800 2800
F 0 "FB1" V 5526 2800 50  0000 C CNN
F 1 "Ferrite_Bead" V 5617 2800 50  0000 C CNN
F 2 "Resistor_SMD:R_0805_2012Metric_Pad1.15x1.40mm_HandSolder" V 5730 2800 50  0001 C CNN
F 3 "~" H 5800 2800 50  0001 C CNN
	1    5800 2800
	0    1    1    0   
$EndComp
Wire Wire Line
	5400 2800 5650 2800
$Comp
L Device:Ferrite_Bead FB3
U 1 1 5D19E85B
P 6550 2800
F 0 "FB3" V 6276 2800 50  0000 C CNN
F 1 "Ferrite_Bead" V 6367 2800 50  0000 C CNN
F 2 "Resistor_SMD:R_0805_2012Metric_Pad1.15x1.40mm_HandSolder" V 6480 2800 50  0001 C CNN
F 3 "~" H 6550 2800 50  0001 C CNN
	1    6550 2800
	0    1    1    0   
$EndComp
Wire Wire Line
	6900 2800 6700 2800
$Comp
L Device:Ferrite_Bead FB2
U 1 1 5D1C0085
P 6450 1950
F 0 "FB2" V 6176 1950 50  0000 C CNN
F 1 "Ferrite_Bead" V 6267 1950 50  0000 C CNN
F 2 "Resistor_SMD:R_0805_2012Metric_Pad1.15x1.40mm_HandSolder" V 6380 1950 50  0001 C CNN
F 3 "~" H 6450 1950 50  0001 C CNN
	1    6450 1950
	0    1    1    0   
$EndComp
Wire Wire Line
	6300 1950 6200 1950
Wire Wire Line
	6950 1950 6600 1950
$Comp
L power:+3.3VA #PWR0103
U 1 1 5D1D73EA
P 6950 1950
F 0 "#PWR0103" H 6950 1800 50  0001 C CNN
F 1 "+3.3VA" V 6965 2078 50  0000 L CNN
F 2 "" H 6950 1950 50  0001 C CNN
F 3 "" H 6950 1950 50  0001 C CNN
	1    6950 1950
	0    1    1    0   
$EndComp
Text Label 8700 5050 0    50   ~ 0
CONN_L
Text Label 8700 5150 0    50   ~ 0
CONN_R
Text Label 8700 4850 0    50   ~ 0
CONN_DATA
$Comp
L power:GND #PWR0104
U 1 1 5D1F7B8E
P 8700 4950
F 0 "#PWR0104" H 8700 4700 50  0001 C CNN
F 1 "GND" V 8705 4777 50  0000 C CNN
F 2 "" H 8700 4950 50  0001 C CNN
F 3 "" H 8700 4950 50  0001 C CNN
	1    8700 4950
	0    1    1    0   
$EndComp
Wire Wire Line
	8700 4950 9150 4950
Wire Wire Line
	9150 5250 8700 5250
$Comp
L power:GND #PWR0105
U 1 1 5D20D453
P 8700 5250
F 0 "#PWR0105" H 8700 5000 50  0001 C CNN
F 1 "GND" V 8705 5077 50  0000 C CNN
F 2 "" H 8700 5250 50  0001 C CNN
F 3 "" H 8700 5250 50  0001 C CNN
	1    8700 5250
	0    1    1    0   
$EndComp
Wire Wire Line
	8700 5050 9150 5050
Wire Wire Line
	9150 5150 8700 5150
Wire Wire Line
	8700 4850 9150 4850
Text Label 2250 5950 0    50   ~ 0
DATALINK
Wire Wire Line
	2250 5950 2150 5950
$Comp
L Device:C C19
U 1 1 5D2E37EE
P 8050 1900
F 0 "C19" H 7950 2050 50  0000 L CNN
F 1 "100n" H 7950 1600 50  0000 L CNN
F 2 "Capacitor_SMD:C_0805_2012Metric_Pad1.15x1.40mm_HandSolder" H 8088 1750 50  0001 C CNN
F 3 "~" H 8050 1900 50  0001 C CNN
	1    8050 1900
	-1   0    0    1   
$EndComp
Wire Wire Line
	8050 2050 8050 2100
Wire Wire Line
	8050 2100 7600 2100
Connection ~ 7600 2100
Wire Wire Line
	7600 2100 7600 2150
Wire Wire Line
	7600 1700 8050 1700
Wire Wire Line
	8050 1750 8050 1700
Connection ~ 8050 1700
Wire Wire Line
	8050 1700 8500 1700
NoConn ~ 3600 5200
NoConn ~ 3600 5600
$Comp
L power:+3.3V #PWR0102
U 1 1 5D389F98
P 3400 5000
F 0 "#PWR0102" H 3400 4850 50  0001 C CNN
F 1 "+3.3V" H 3415 5173 50  0000 C CNN
F 2 "" H 3400 5000 50  0001 C CNN
F 3 "" H 3400 5000 50  0001 C CNN
	1    3400 5000
	0    -1   -1   0   
$EndComp
$Comp
L Connector:Conn_01x01_Female J3
U 1 1 5D1705E7
P 9350 4850
F 0 "J3" H 9378 4876 50  0000 L CNN
F 1 "Conn_01x01_Female" H 9378 4785 50  0000 L CNN
F 2 "Connector_Pin:Pin_D1.3mm_L11.0mm" H 9350 4850 50  0001 C CNN
F 3 "~" H 9350 4850 50  0001 C CNN
	1    9350 4850
	1    0    0    -1  
$EndComp
$Comp
L Connector:Conn_01x01_Female J4
U 1 1 5D171233
P 9350 4950
F 0 "J4" H 9378 4976 50  0000 L CNN
F 1 "Conn_01x01_Female" H 9378 4885 50  0000 L CNN
F 2 "Connector_Pin:Pin_D1.3mm_L11.0mm" H 9350 4950 50  0001 C CNN
F 3 "~" H 9350 4950 50  0001 C CNN
	1    9350 4950
	1    0    0    -1  
$EndComp
$Comp
L Connector:Conn_01x01_Female J5
U 1 1 5D171424
P 9350 5050
F 0 "J5" H 9378 5076 50  0000 L CNN
F 1 "Conn_01x01_Female" H 9378 4985 50  0000 L CNN
F 2 "Connector_Pin:Pin_D1.3mm_L11.0mm" H 9350 5050 50  0001 C CNN
F 3 "~" H 9350 5050 50  0001 C CNN
	1    9350 5050
	1    0    0    -1  
$EndComp
$Comp
L Connector:Conn_01x01_Female J6
U 1 1 5D1715E7
P 9350 5150
F 0 "J6" H 9378 5176 50  0000 L CNN
F 1 "Conn_01x01_Female" H 9378 5085 50  0000 L CNN
F 2 "Connector_Pin:Pin_D1.3mm_L11.0mm" H 9350 5150 50  0001 C CNN
F 3 "~" H 9350 5150 50  0001 C CNN
	1    9350 5150
	1    0    0    -1  
$EndComp
$Comp
L Connector:Conn_01x01_Female J7
U 1 1 5D1718C2
P 9350 5250
F 0 "J7" H 9378 5276 50  0000 L CNN
F 1 "Conn_01x01_Female" H 9378 5185 50  0000 L CNN
F 2 "Connector_Pin:Pin_D1.3mm_L11.0mm" H 9350 5250 50  0001 C CNN
F 3 "~" H 9350 5250 50  0001 C CNN
	1    9350 5250
	1    0    0    -1  
$EndComp
$Comp
L Regulator_Linear:LM1117-3.3 U3
U 1 1 5D178681
P 4350 1800
F 0 "U3" H 4350 2042 50  0000 C CNN
F 1 "LM1117-3.3" H 4350 1951 50  0000 C CNN
F 2 "Package_TO_SOT_SMD:SOT-223-3_TabPin2" H 4350 1800 50  0001 C CNN
F 3 "http://www.ti.com/lit/ds/symlink/lm1117.pdf" H 4350 1800 50  0001 C CNN
	1    4350 1800
	1    0    0    -1  
$EndComp
$Comp
L Regulator_Linear:LM1117-3.3 U2
U 1 1 5D1863B1
P 4350 900
F 0 "U2" H 4350 1142 50  0000 C CNN
F 1 "LM1117-3.3" H 4350 1051 50  0000 C CNN
F 2 "Package_TO_SOT_SMD:SOT-223-3_TabPin2" H 4350 900 50  0001 C CNN
F 3 "http://www.ti.com/lit/ds/symlink/lm1117.pdf" H 4350 900 50  0001 C CNN
	1    4350 900 
	1    0    0    -1  
$EndComp
$Comp
L Device:CP C4
U 1 1 5D19B24A
P 3800 2100
F 0 "C4" H 3918 2146 50  0000 L CNN
F 1 "22uF 10V" H 3918 2055 50  0000 L CNN
F 2 "Capacitor_SMD:C_1206_3216Metric_Pad1.42x1.75mm_HandSolder" H 3838 1950 50  0001 C CNN
F 3 "~" H 3800 2100 50  0001 C CNN
	1    3800 2100
	1    0    0    -1  
$EndComp
Wire Wire Line
	8100 4150 8100 4250
$Comp
L Device:R R14
U 1 1 5D31D5D1
P 8600 4000
F 0 "R14" H 8450 4050 50  0000 L CNN
F 1 "NC" H 8400 3950 50  0000 L CNN
F 2 "Resistor_SMD:R_0805_2012Metric_Pad1.15x1.40mm_HandSolder" V 8530 4000 50  0001 C CNN
F 3 "~" H 8600 4000 50  0001 C CNN
	1    8600 4000
	-1   0    0    1   
$EndComp
Wire Wire Line
	8600 4150 8600 4250
Wire Wire Line
	8600 4250 8100 4250
Connection ~ 8100 4250
Wire Wire Line
	8100 4250 8100 4300
Wire Wire Line
	8100 3750 8600 3750
Wire Wire Line
	8600 3750 8600 3850
Connection ~ 8100 3750
$Comp
L Device:R R15
U 1 1 5D32F4B7
P 9750 4000
F 0 "R15" H 9600 4050 50  0000 L CNN
F 1 "NC" H 9550 3950 50  0000 L CNN
F 2 "Resistor_SMD:R_0805_2012Metric_Pad1.15x1.40mm_HandSolder" V 9680 4000 50  0001 C CNN
F 3 "~" H 9750 4000 50  0001 C CNN
	1    9750 4000
	-1   0    0    1   
$EndComp
Wire Wire Line
	9750 4150 9750 4250
Wire Wire Line
	9750 4250 9250 4250
Connection ~ 9250 4250
Wire Wire Line
	9250 3650 9250 3850
Wire Wire Line
	8600 4250 9250 4250
Connection ~ 8600 4250
Wire Wire Line
	9250 3650 9750 3650
Wire Wire Line
	9750 3650 9750 3850
Connection ~ 9250 3650
Wire Wire Line
	8000 3650 9250 3650
$EndSCHEMATC
