G04 #@! TF.GenerationSoftware,KiCad,Pcbnew,5.1.2-f72e74a~84~ubuntu18.04.1*
G04 #@! TF.CreationDate,2019-07-18T15:49:58+02:00*
G04 #@! TF.ProjectId,beobridge,62656f62-7269-4646-9765-2e6b69636164,rev?*
G04 #@! TF.SameCoordinates,Original*
G04 #@! TF.FileFunction,Profile,NP*
%FSLAX46Y46*%
G04 Gerber Fmt 4.6, Leading zero omitted, Abs format (unit mm)*
G04 Created by KiCad (PCBNEW 5.1.2-f72e74a~84~ubuntu18.04.1) date 2019-07-18 15:49:58*
%MOMM*%
%LPD*%
G04 APERTURE LIST*
%ADD10C,0.050000*%
G04 APERTURE END LIST*
D10*
X123952000Y-123317000D02*
X159512000Y-123317000D01*
X118872000Y-118237000D02*
X118872000Y-82677000D01*
X123952000Y-123317000D02*
G75*
G02X118872000Y-118237000I0J5080000D01*
G01*
X123952000Y-77597000D02*
X159512000Y-77597000D01*
X118872000Y-82677000D02*
G75*
G02X123952000Y-77597000I5080000J0D01*
G01*
X164592000Y-82677000D02*
X164592000Y-118237000D01*
X159512000Y-77597000D02*
G75*
G02X164592000Y-82677000I0J-5080000D01*
G01*
X164592000Y-118237000D02*
G75*
G02X159512000Y-123317000I-5080000J0D01*
G01*
M02*
